[{
  "name": "Russia",
  "people": [
    {
      "name": "Shani McCray",
      "animals": [
        {
          "namea": "Whale, southern right"
        },
        {
          "name": "Brush-tailed rat kangaroo"
        }
      ]
    }
  ]
}, {
  "name": "Indonesia",
  "people": [
    {
      "name": "Randa Search"
    }
  ]
}, {
  "name": "Russia",
  "people": [

  ]
}, {
  "name": "China",
  "people": [
    {
      "animals": [
        {
          "name": "Crane, blue"
        },
        {
          "name": "Common turkey"
        },
        {
          "name": "Parrot, hawk-headed"
        },
        {
          "name": "Bear, polar"
        },
        {
          "name": "Bushbuck"
        }
      ]
    }
  ]
}, {
  "people": [
    {
      "name": "Mycah Geelan",
      "animals": [
        {
          "name": "African lion"
        },
        {
          "name": "White-faced whistling duck"
        }
      ]
    },
    {
      "name": "Nat Covelle",
      "animals": [
        {
          "name": "Common nighthawk"
        }
      ]
    },
    {
      "name": "Tasia Matt",
      "animals": [
        {
          "name": "Brown lemur"
        }
      ]
    },
    {
      "name": "Goddard Mullins",
      "animals": [
        {
          "name": "White-throated monitor"
        },
        {
          "name": "Godwit, hudsonian"
        },
        {
          "name": "Dragon, frilled"
        }
      ]
    },
    {
      "name": "Cchaddie Shiliton",
      "animals": [
        {
          "name": "Asiatic jackal"
        }
      ]
    }
  ]
}, {
  "name": "Sweden",
  "people": [
    {
      "name": "Aurlie Ricold",
      "animals": [

      ]
    },
    {
      "name": "Kirbee Greasley",
      "animals": [
        {
          "name": "Zebra, common"
        }
      ]
    },
    {
      "name": "Starla Spikings",
      "animals": [
        {
          "name": "Dragon, frilled"
        }
      ]
    },
    {
      "name": "Saundra Pietsma",
      "animals": [

      ]
    }
  ]
}, {
  "name": "Serbia",
  "people": [
    {
      "name": "Vin Abbess",
      "animals": [
        {
          "name": "Blue wildebeest"
        },
        {
          "name": "Common raccoon"
        },
        {
          "name": "Egret, snowy"
        },
        {
          "name": "Eurasian beaver"
        },
        {
          "name": "Skua, great"
        }
      ]
    },
    {
      "name": "Latashia Probyn",
      "animals": [

      ]
    }
  ]
}, {
  "name": "China",
  "people": [

  ]
}, {
  "name": "Philippines",
  "people": [
    {
      "name": "Vale Dumberrill",
      "animals": [
        {
          "name": "Yellow-billed stork"
        },
        {
          "name": "Sloth, two-toed"
        },
        {
          "name": "Dragon, netted rock"
        },
        {
          "name": "Peacock, indian"
        }
      ]
    },
    {
      "name": "Raine Goodayle",
      "animals": [
        {
          "name": "Gull, dusky"
        },
        {
          "name": "Hare, arctic"
        },
        {
          "name": "Gecko, bent-toed"
        },
        {
          "name": "Skunk, western spotted"
        },
        {
          "name": "Rat, white-faced tree"
        }
      ]
    },
    {
      "name": "Dorothy Jerram",
      "animals": [
        {
          "name": "Screamer, southern"
        }
      ]
    }
  ]
}, {
  "name": "Norway",
  "people": [

  ]
}, {
  "name": "Indonesia",
  "people": [
    {
      "name": "Ahmad Phippin",
      "animals": [
        {
          "name": "Thrasher, curve-billed"
        },
        {
          "name": "Gray langur"
        },
        {
          "name": "Snake, tiger"
        },
        {
          "name": "Asian elephant"
        },
        {
          "name": "Blue-breasted cordon bleu"
        }
      ]
    },
    {
      "name": "Keefe Kilshaw",
      "animals": [
        {
          "name": "Hyena, brown"
        },
        {
          "name": "Red-knobbed coot"
        },
        {
          "name": "Klipspringer"
        },
        {
          "name": "Crested screamer"
        },
        {
          "name": "African skink"
        }
      ]
    },
    {
      "name": "Gill Castelot",
      "animals": [
        {
          "name": "Raccoon dog"
        },
        {
          "name": "Brown capuchin"
        }
      ]
    },
    {
      "name": "Penelope Wolters",
      "animals": [
        {
          "name": "Tinamou, elegant crested"
        },
        {
          "name": "Sacred ibis"
        }
      ]
    },
    {
      "name": "Desmond Wildber",
      "animals": [
        {
          "name": "Common langur"
        },
        {
          "name": "Sloth bear"
        },
        {
          "name": "Asian water dragon"
        },
        {
          "name": "European red squirrel"
        },
        {
          "name": "Ring-tailed coatimundi"
        }
      ]
    }
  ]
}, {
  "name": "Germany",
  "people": [
    {
      "name": "Delilah Zanardii",
      "animals": [
        {
          "name": "Seal, common"
        },
        {
          "name": "Eastern boa constrictor"
        },
        {
          "name": "Large cormorant"
        },
        {
          "name": "Azara's zorro"
        }
      ]
    },
    {
      "name": "Deb Maccrae",
      "animals": [

      ]
    }
  ]
}, {
  "name": "China",
  "people": [
    {
      "name": "Christen Skate",
      "animals": [
        {
          "name": "Crow, house"
        },
        {
          "name": "Bettong, brush-tailed"
        }
      ]
    },
    {
      "name": "Bent Simonnet",
      "animals": [

      ]
    },
    {
      "name": "Tobey Kittles",
      "animals": [
        {
          "name": "Lava gull"
        }
      ]
    },
    {
      "name": "Hort Early",
      "animals": [

      ]
    }
  ]
}, {
  "name": "Palestinian Territory",
  "people": [
    {
      "name": "Nico Medlar",
      "animals": [
        {
          "name": "Black-eyed bulbul"
        }
      ]
    }
  ]
}, {
  "name": "Indonesia",
  "people": [
    {
      "name": "Stephana Witnall",
      "animals": [
        {
          "name": "Suricate"
        },
        {
          "name": "Steenbuck"
        }
      ]
    },
    {
      "name": "Hetti Plett",
      "animals": [
        {
          "name": "Blue-tongued skink"
        },
        {
          "name": "Red squirrel"
        },
        {
          "name": "Heron, little"
        },
        {
          "name": "Colobus, black and white"
        },
        {
          "name": "Adouri (unidentified)"
        }
      ]
    },
    {
      "name": "Giovanna Sheron",
      "animals": [
        {
          "name": "Butterfly (unidentified)"
        },
        {
          "name": "Tern, royal"
        },
        {
          "name": "Wallaby, river"
        }
      ]
    }
  ]
}, {
  "name": "China",
  "people": [
    {
      "name": "Griswold Cleal",
      "animals": [
        {
          "name": "Woodcock, american"
        },
        {
          "name": "Heron, goliath"
        },
        {
          "name": "Long-necked turtle"
        },
        {
          "name": "Blue-tongued lizard"
        }
      ]
    }
  ]
}, {
  "name": "Russia",
  "people": [

  ]
}, {
  "name": "China",
  "people": [
    {
      "name": "Carol-jean Galbreath",
      "animals": [
        {
          "name": "Black-eyed bulbul"
        },
        {
          "name": "Llama"
        },
        {
          "name": "Wombat, common"
        },
        {
          "name": "Numbat"
        },
        {
          "name": "Crab, sally lightfoot"
        }
      ]
    },
    {
      "name": "Flo Brasner",
      "animals": [

      ]
    }
  ]
}, {
  "name": "Portugal",
  "people": [

  ]
}, {
  "name": "Vietnam",
  "people": [
    {
      "name": "Ericha Ryman",
      "animals": [
        {
          "name": "Buffalo, asian water"
        },
        {
          "name": "Bohor reedbuck"
        },
        {
          "name": "Lesser flamingo"
        }
      ]
    }
  ]
}, {
  "name": "Indonesia",
  "people": [
    {
      "name": "Dottie Avrasin",
      "animals": [
        {
          "name": "Black-winged stilt"
        },
        {
          "name": "Bottle-nose dolphin"
        }
      ]
    }
  ]
}, {
  "name": "Japan",
  "people": [
    {
      "name": "Sisile Lomasna",
      "animals": [

      ]
    },
    {
      "name": "Aubrey Shakespear",
      "animals": [

      ]
    },
    {
      "name": "Querida Whittall",
      "animals": [

      ]
    }
  ]
}, {
  "name": "France",
  "people": [
    {
      "name": "Rosina Keenan",
      "animals": [
        {
          "name": "Avocet, pied"
        },
        {
          "name": "Woodpecker, red-headed"
        }
      ]
    },
    {
      "name": "Mariya Aluard",
      "animals": [
        {
          "name": "Ringtail, common"
        },
        {
          "name": "Eleven-banded armadillo (unidentified)"
        },
        {
          "name": "Crested barbet"
        }
      ]
    },
    {
      "name": "Gustav O'Kinedy",
      "animals": [
        {
          "name": "Crane, blue"
        },
        {
          "name": "Arctic tern"
        },
        {
          "name": "Plains zebra"
        },
        {
          "name": "Common duiker"
        },
        {
          "name": "Curve-billed thrasher"
        }
      ]
    }
  ]
}, {
  "name": "China",
  "people": [
    {
      "name": "Hirsch Thiolier",
      "animals": [
        {
          "name": "Bandicoot, southern brown"
        },
        {
          "name": "Glider, squirrel"
        }
      ]
    },
    {
      "name": "Neddie Lavis",
      "animals": [
        {
          "name": "Blue shark"
        },
        {
          "name": "Southern boubou"
        }
      ]
    },
    {
      "name": "Audy Paten",
      "animals": [
        {
          "name": "Australian magpie"
        }
      ]
    },
    {
      "name": "Norean Lucus",
      "animals": [
        {
          "name": "Turkey, australian brush"
        },
        {
          "name": "Southern tamandua"
        },
        {
          "name": "Cattle egret"
        }
      ]
    },
    {
      "name": "Pris Skurray",
      "animals": [

      ]
    }
  ]
}, {
  "name": "Indonesia",
  "people": [
    {
      "name": "Ax Randalson",
      "animals": [
        {
          "name": "Fox, crab-eating"
        }
      ]
    },
    {
      "name": "Karita Barme",
      "animals": [
        {
          "name": "Royal tern"
        },
        {
          "name": "Kangaroo, western grey"
        },
        {
          "name": "Savanna fox"
        }
      ]
    }
  ]
}, {
  "name": "Philippines",
  "people": [
    {
      "name": "Bronson M'Barron",
      "animals": [
        {
          "name": "Ferruginous hawk"
        },
        {
          "name": "Brocket, brown"
        },
        {
          "name": "Crab (unidentified)"
        }
      ]
    },
    {
      "name": "Lib Carder",
      "animals": [
        {
          "name": "Eastern boa constrictor"
        },
        {
          "name": "Gecko, bent-toed"
        },
        {
          "name": "Kiskadee, great"
        }
      ]
    },
    {
      "name": "Cammie Staggs",
      "animals": [

      ]
    }
  ]
}, {
  "name": "Philippines",
  "people": [
    {
      "name": "Jana Champkins",
      "animals": [
        {
          "name": "Malabar squirrel"
        },
        {
          "name": "Beaver, european"
        },
        {
          "name": "Pine snake (unidentified)"
        },
        {
          "name": "Stork, white-necked"
        },
        {
          "name": "Western bearded dragon"
        }
      ]
    },
    {
      "name": "Alleen Golder",
      "animals": [
        {
          "name": "Dark-winged trumpeter"
        }
      ]
    }
  ]
}, {
  "name": "Russia",
  "people": [

  ]
}, {
  "name": "Argentina",
  "people": [
    {
      "name": "Gallagher Bezarra",
      "animals": [
        {
          "name": "Horned lark"
        },
        {
          "name": "Deer, swamp"
        }
      ]
    },
    {
      "name": "Nedi McKeon",
      "animals": [
        {
          "name": "Cereopsis goose"
        }
      ]
    }
  ]
}, {
  "name": "Jordan",
  "people": [
    {
      "name": "Anica Nollet",
      "animals": [

      ]
    }
  ]
}, {
  "name": "Tunisia",
  "people": [
    {
      "name": "Deane Rixon",
      "animals": [
        {
          "name": "Rhesus monkey"
        },
        {
          "name": "Black-tailed deer"
        }
      ]
    },
    {
      "name": "Fleur Berney",
      "animals": [
        {
          "name": "Red and blue macaw"
        },
        {
          "name": "Sage hen"
        },
        {
          "name": "Columbian rainbow boa"
        },
        {
          "name": "Nile crocodile"
        },
        {
          "name": "Snowy egret"
        }
      ]
    },
    {
      "name": "Mickie Aleksich",
      "animals": [

      ]
    },
    {
      "name": "Mort Blodget",
      "animals": [
        {
          "name": "Lion, asian"
        }
      ]
    }
  ]
}, {
  "name": "Russia",
  "people": [
    {
      "name": "Lucky Swinglehurst",
      "animals": [

      ]
    },
    {
      "name": "Silvester Varty",
      "animals": [
        {
          "name": "Steenbok"
        },
        {
          "name": "Emu"
        },
        {
          "name": "Striped hyena"
        },
        {
          "name": "Clark's nutcracker"
        },
        {
          "name": "Lesser mouse lemur"
        }
      ]
    },
    {
      "name": "Ericka Guillet",
      "animals": [

      ]
    }
  ]
}, {
  "name": "Sweden",
  "people": [
    {
      "name": "Carlin Hought",
      "animals": [
        {
          "name": "Lemur, lesser mouse"
        },
        {
          "name": "Snake, carpet"
        },
        {
          "name": "Ground monitor (unidentified)"
        },
        {
          "name": "Southern sea lion"
        }
      ]
    }
  ]
}, {
  "name": "Japan",
  "people": [
    {
      "name": "Jennifer Dymocke",
      "animals": [
        {
          "name": "Barrows goldeneye"
        },
        {
          "name": "Common palm civet"
        }
      ]
    },
    {
      "name": "Marj Sheehy",
      "animals": [
        {
          "name": "Scaly-breasted lorikeet"
        },
        {
          "name": "Squirrel, grey-footed"
        }
      ]
    },
    {
      "name": "Alejandro Haycraft",
      "animals": [
        {
          "name": "Chipmunk, least"
        },
        {
          "name": "Superb starling"
        },
        {
          "name": "Bustard, kori"
        }
      ]
    },
    {
      "name": "Rosanne Lilly",
      "animals": [
        {
          "name": "South American sea lion"
        },
        {
          "name": "Hummingbird (unidentified)"
        }
      ]
    },
    {
      "name": "Nettie Scriver",
      "animals": [
        {
          "name": "Dove, emerald-spotted wood"
        },
        {
          "name": "Japanese macaque"
        },
        {
          "name": "Yellow-bellied marmot"
        },
        {
          "name": "Long-necked turtle"
        }
      ]
    }
  ]
}, {
  "name": "Indonesia",
  "people": [

  ]
}, {
  "name": "China",
  "people": [
    {
      "name": "Michael Wilmot",
      "animals": [
        {
          "name": "Zorilla"
        },
        {
          "name": "Sloth bear"
        },
        {
          "name": "Red-necked phalarope"
        },
        {
          "name": "Dove, little brown"
        },
        {
          "name": "Goose, snow"
        }
      ]
    },
    {
      "name": "Marian Vannet",
      "animals": [
        {
          "name": "Common boubou shrike"
        }
      ]
    },
    {
      "name": "Sandy Lightewood",
      "animals": [
        {
          "name": "Wallaby, dama"
        },
        {
          "name": "Mynah, indian"
        },
        {
          "name": "Little brown dove"
        }
      ]
    },
    {
      "name": "Puff Greenhough",
      "animals": [
        {
          "name": "Marabou stork"
        },
        {
          "name": "Turtle (unidentified)"
        },
        {
          "name": "Porcupine, indian"
        },
        {
          "name": "Tawny frogmouth"
        }
      ]
    },
    {
      "name": "Marcie Abramow",
      "animals": [
        {
          "name": "Bandicoot, southern brown"
        }
      ]
    }
  ]
}, {
  "name": "Hungary",
  "people": [
    {
      "name": "Wynn Cardenoso",
      "animals": [
        {
          "name": "Starling, superb"
        },
        {
          "name": "Chestnut weaver"
        },
        {
          "name": "Coyote"
        }
      ]
    },
    {
      "name": "Phillie Chamberlayne",
      "animals": [
        {
          "name": "Squirrel, antelope ground"
        },
        {
          "name": "Phalarope, grey"
        },
        {
          "name": "Tern, white-winged"
        },
        {
          "name": "Porcupine, african"
        },
        {
          "name": "Gerenuk"
        }
      ]
    },
    {
      "name": "Harrie Brookson",
      "animals": [
        {
          "name": "Bettong, brush-tailed"
        },
        {
          "name": "White-browed sparrow weaver"
        },
        {
          "name": "Woodcock, american"
        }
      ]
    },
    {
      "name": "Rori Daen",
      "animals": [
        {
          "name": "Rhesus monkey"
        }
      ]
    }
  ]
}, {
  "name": "China",
  "people": [
    {
      "name": "Waiter Blakesley",
      "animals": [
        {
          "name": "Cape Barren goose"
        },
        {
          "name": "Leopard, indian"
        },
        {
          "name": "Red-tailed wambenger"
        },
        {
          "name": "Burrowing owl"
        },
        {
          "name": "Canadian tiger swallowtail butterfly"
        }
      ]
    }
  ]
}, {
  "name": "Indonesia",
  "people": [
    {
      "name": "Lennie Please",
      "animals": [
        {
          "name": "Comb duck"
        }
      ]
    },
    {
      "name": "Jennifer Skillicorn",
      "animals": [
        {
          "name": "Admiral, indian red"
        },
        {
          "name": "Arboral spiny rat"
        },
        {
          "name": "Penguin, magellanic"
        },
        {
          "name": "Pampa gray fox"
        },
        {
          "name": "Ring-tailed gecko"
        }
      ]
    },
    {
      "name": "Pamela Blasius",
      "animals": [
        {
          "name": "Squirrel, palm"
        }
      ]
    },
    {
      "name": "Gerladina Goly",
      "animals": [
        {
          "name": "Butterfly (unidentified)"
        }
      ]
    }
  ]
}, {
  "name": "Micronesia",
  "people": [
    {
      "name": "Luelle Dorber",
      "animals": [
        {
          "name": "Loris, slender"
        }
      ]
    }
  ]
}, {
  "name": "Brazil",
  "people": [

  ]
}, {
  "name": "Czech Republic",
  "people": [
    {
      "name": "Cheri McInnes",
      "animals": [
        {
          "name": "American black bear"
        },
        {
          "name": "Hedgehog, south african"
        },
        {
          "name": "Eagle, african fish"
        },
        {
          "name": "Four-horned antelope"
        },
        {
          "name": "Steenbuck"
        }
      ]
    },
    {
      "name": "Sonnie Grevatt",
      "animals": [
        {
          "name": "Monkey, red howler"
        },
        {
          "name": "Raven, white-necked"
        },
        {
          "name": "Hippopotamus"
        },
        {
          "name": "Baboon, savanna"
        },
        {
          "name": "Starling, superb"
        }
      ]
    },
    {
      "name": "Antonius Vennart",
      "animals": [
        {
          "name": "Madagascar fruit bat"
        },
        {
          "name": "Owl, great horned"
        },
        {
          "name": "Baleen whale"
        },
        {
          "name": "Brush-tailed rat kangaroo"
        },
        {
          "name": "Macaw, blue and yellow"
        }
      ]
    }
  ]
}, {
  "name": "Iran",
  "people": [
    {
      "name": "Brewster Vondrys",
      "animals": [
        {
          "name": "Cormorant, king"
        },
        {
          "name": "Caracara, yellow-headed"
        },
        {
          "name": "Blackbuck"
        },
        {
          "name": "Admiral, indian red"
        }
      ]
    }
  ]
}, {
  "name": "France",
  "people": [
    {
      "name": "Adrianne Bowland",
      "animals": [
        {
          "name": "Wagtail, african pied"
        }
      ]
    },
    {
      "name": "Husain Tzarkov",
      "animals": [
        {
          "name": "Bobcat"
        },
        {
          "name": "Chestnut weaver"
        },
        {
          "name": "Glider, sugar"
        },
        {
          "name": "Bandicoot, short-nosed"
        }
      ]
    },
    {
      "name": "Conrade Le Leu",
      "animals": [

      ]
    },
    {
      "name": "Magda Mishaw",
      "animals": [
        {
          "name": "Griffon vulture"
        },
        {
          "name": "Plover, three-banded"
        },
        {
          "name": "Kangaroo, brush-tailed rat"
        }
      ]
    },
    {
      "name": "Townie Francino",
      "animals": [
        {
          "name": "Laughing kookaburra"
        },
        {
          "name": "Saddle-billed stork"
        },
        {
          "name": "Swan, black"
        },
        {
          "name": "Yellow mongoose"
        }
      ]
    }
  ]
}, {
  "name": "Argentina",
  "people": [
    {
      "name": "Estella Bellas",
      "animals": [
        {
          "name": "Mandras tree shrew"
        },
        {
          "name": "Kangaroo, eastern grey"
        }
      ]
    },
    {
      "name": "Mimi Di Franceshci",
      "animals": [
        {
          "name": "White-browed sparrow weaver"
        }
      ]
    },
    {
      "name": "Essa Wolfe",
      "animals": [
        {
          "name": "Red-legged pademelon"
        }
      ]
    }
  ]
}, {
  "name": "Indonesia",
  "people": [
    {
      "name": "See Sehorsch",
      "animals": [
        {
          "name": "Puffin, horned"
        },
        {
          "name": "Shark, blue"
        },
        {
          "name": "Boubou, southern"
        },
        {
          "name": "Cuis"
        }
      ]
    },
    {
      "name": "Nerty Pratley",
      "animals": [
        {
          "name": "Owl, australian masked"
        },
        {
          "name": "Weaver, white-browed sparrow"
        },
        {
          "name": "Javan gold-spotted mongoose"
        },
        {
          "name": "Grouse, sage"
        }
      ]
    }
  ]
}, {
  "name": "China",
  "people": [
    {
      "name": "Ransell Knight",
      "animals": [

      ]
    },
    {
      "name": "Jard Murrthum",
      "animals": [
        {
          "name": "Burchell's gonolek"
        }
      ]
    }
  ]
}, {
  "name": "Uganda",
  "people": [

  ]
}, {
  "name": "China",
  "people": [
    {
      "name": "Perrine Le Provost",
      "animals": [
        {
          "name": "American bighorn sheep"
        }
      ]
    },
    {
      "name": "Mercie Raddon",
      "animals": [
        {
          "name": "Squirrel, palm"
        },
        {
          "name": "Black-capped capuchin"
        },
        {
          "name": "Eurasian red squirrel"
        },
        {
          "name": "Constrictor, eastern boa"
        },
        {
          "name": "Boubou, southern"
        }
      ]
    },
    {
      "name": "Deni Mandre",
      "animals": [

      ]
    }
  ]
}, {
  "name": "Sierra Leone",
  "people": [
    {
      "name": "Toni Cullagh",
      "animals": [
        {
          "name": "Pelican, brown"
        },
        {
          "name": "Greater sage grouse"
        },
        {
          "name": "White-winged tern"
        },
        {
          "name": "Pelican, great white"
        }
      ]
    },
    {
      "name": "Alvera Faichnie",
      "animals": [
        {
          "name": "Cape wild cat"
        },
        {
          "name": "Gaur"
        }
      ]
    },
    {
      "name": "Sam Rosekilly",
      "animals": [
        {
          "name": "Brazilian otter"
        },
        {
          "name": "Capuchin, black-capped"
        },
        {
          "name": "Common goldeneye"
        },
        {
          "name": "Lappet-faced vulture"
        },
        {
          "name": "Sparrow, rufous-collared"
        }
      ]
    }
  ]
}, {
  "name": "China",
  "people": [
    {
      "name": "Lionel Karlowicz",
      "animals": [
        {
          "name": "Skua, long-tailed"
        }
      ]
    }
  ]
}, {
  "name": "Indonesia",
  "people": [

  ]
}, {
  "name": "Brazil",
  "people": [
    {
      "name": "Arne Nulty",
      "animals": [
        {
          "name": "Black and white colobus"
        }
      ]
    }
  ]
}, {
  "name": "Greece",
  "people": [
    {
      "name": "Shane Gerrett",
      "animals": [
        {
          "name": "Bison, american"
        },
        {
          "name": "Beaver, american"
        },
        {
          "name": "Lizard, frilled"
        }
      ]
    },
    {
      "name": "Zita Windus",
      "animals": [
        {
          "name": "Anteater, giant"
        },
        {
          "name": "Olive baboon"
        },
        {
          "name": "Red-legged pademelon"
        },
        {
          "name": "Turkey, common"
        },
        {
          "name": "Hippopotamus"
        }
      ]
    },
    {
      "name": "Livvie Heakins",
      "animals": [

      ]
    }
  ]
}, {
  "name": "Russia",
  "people": [
    {
      "name": "Susan Tocque",
      "animals": [
        {
          "name": "Mongoose, small indian"
        },
        {
          "name": "Red-breasted nuthatch"
        },
        {
          "name": "Wild turkey"
        },
        {
          "name": "Monitor, water"
        },
        {
          "name": "Badger, american"
        }
      ]
    },
    {
      "name": "Cosetta Gammon",
      "animals": [
        {
          "name": "Wolf spider"
        }
      ]
    },
    {
      "name": "Todd Galler",
      "animals": [
        {
          "name": "Alligator, mississippi"
        },
        {
          "name": "Emu"
        },
        {
          "name": "Two-toed tree sloth"
        },
        {
          "name": "Heron, black-crowned night"
        }
      ]
    }
  ]
}, {
  "name": "Venezuela",
  "people": [
    {
      "name": "Rudolfo Sute",
      "animals": [
        {
          "name": "Snake, tiger"
        }
      ]
    },
    {
      "name": "Germain Portress",
      "animals": [
        {
          "name": "South American puma"
        },
        {
          "name": "Iguana, land"
        },
        {
          "name": "Springbok"
        },
        {
          "name": "Gull, swallow-tail"
        }
      ]
    }
  ]
}, {
  "name": "Ethiopia",
  "people": [
    {
      "name": "Pauly Skells",
      "animals": [
        {
          "name": "Goat, mountain"
        },
        {
          "name": "Gull, pacific"
        },
        {
          "name": "Brindled gnu"
        },
        {
          "name": "Lemming, collared"
        },
        {
          "name": "Fairy penguin"
        }
      ]
    },
    {
      "name": "Marybeth Pankettman",
      "animals": [
        {
          "name": "Gull, kelp"
        },
        {
          "name": "Darter, african"
        },
        {
          "name": "Fox, cape"
        }
      ]
    },
    {
      "name": "Charmian Djakovic",
      "animals": [
        {
          "name": "Lemming, collared"
        },
        {
          "name": "Grenadier, common"
        },
        {
          "name": "Lion, southern sea"
        }
      ]
    }
  ]
}, {
  "name": "China",
  "people": [
    {
      "name": "Wilmar Verecker",
      "animals": [
        {
          "name": "Curlew, black"
        },
        {
          "name": "Snake, buttermilk"
        },
        {
          "name": "Nighthawk, common"
        }
      ]
    },
    {
      "name": "Arin Odde",
      "animals": [

      ]
    },
    {
      "name": "Maudie Becarra",
      "animals": [

      ]
    },
    {
      "name": "Fiona Bruyet",
      "animals": [
        {
          "name": "Gull, dusky"
        },
        {
          "name": "Silver-backed jackal"
        }
      ]
    }
  ]
}, {
  "name": "Canada",
  "people": [
    {
      "name": "Sherilyn Ramsier",
      "animals": [
        {
          "name": "Hawk-headed parrot"
        },
        {
          "name": "Vulture, white-rumped"
        },
        {
          "name": "Lizard, giant girdled"
        }
      ]
    },
    {
      "name": "Antonie Guerrero",
      "animals": [
        {
          "name": "Greylag goose"
        },
        {
          "name": "Goose, snow"
        },
        {
          "name": "Eastern cottontail rabbit"
        },
        {
          "name": "Squirrel, pine"
        },
        {
          "name": "Jackal, asiatic"
        }
      ]
    },
    {
      "name": "Starlene Soar",
      "animals": [
        {
          "name": "Red phalarope"
        },
        {
          "name": "Lilac-breasted roller"
        },
        {
          "name": "Peacock, blue"
        },
        {
          "name": "Hartebeest, red"
        },
        {
          "name": "Scottish highland cow"
        }
      ]
    }
  ]
}, {
  "name": "China",
  "people": [

  ]
}, {
  "name": "Russia",
  "people": [
    {
      "name": "Sergent Mustard",
      "animals": [
        {
          "name": "Blue crane"
        },
        {
          "name": "Red-knobbed coot"
        },
        {
          "name": "Bulbul, african red-eyed"
        },
        {
          "name": "Columbian rainbow boa"
        }
      ]
    },
    {
      "name": "Husein Yglesia",
      "animals": [
        {
          "name": "Wild boar"
        },
        {
          "name": "Cow, scottish highland"
        },
        {
          "name": "African fish eagle"
        }
      ]
    }
  ]
}, {
  "name": "China",
  "people": [
    {
      "name": "Evaleen Parr",
      "animals": [
        {
          "name": "Brazilian otter"
        }
      ]
    },
    {
      "name": "Catie Daniely",
      "animals": [
        {
          "name": "Blue-tongued skink"
        },
        {
          "name": "Eastern cottontail rabbit"
        },
        {
          "name": "Spider, wolf"
        }
      ]
    },
    {
      "name": "Corenda Winsley",
      "animals": [
        {
          "name": "Yellow-throated sandgrouse"
        },
        {
          "name": "Savannah deer (unidentified)"
        },
        {
          "name": "Banded mongoose"
        },
        {
          "name": "Red-breasted nuthatch"
        }
      ]
    },
    {
      "name": "Derril Turbefield",
      "animals": [
        {
          "name": "Black-throated butcher bird"
        },
        {
          "name": "Legaan, Monitor (unidentified)"
        },
        {
          "name": "Arctic ground squirrel"
        }
      ]
    },
    {
      "name": "George Faye",
      "animals": [
        {
          "name": "Little brown dove"
        },
        {
          "name": "Gull, herring"
        },
        {
          "name": "Savannah deer (unidentified)"
        }
      ]
    }
  ]
}, {
  "name": "Syria",
  "people": [
    {
      "name": "Dallis Swaine",
      "animals": [
        {
          "name": "Magpie, australian"
        },
        {
          "name": "Oryx, beisa"
        },
        {
          "name": "White-headed vulture"
        },
        {
          "name": "Dik, kirk's dik"
        }
      ]
    },
    {
      "name": "Tyne Nisco",
      "animals": [
        {
          "name": "Dragon, western bearded"
        },
        {
          "name": "Openbill stork"
        }
      ]
    },
    {
      "name": "Waldo Keuntje",
      "animals": [
        {
          "name": "Mynah, common"
        }
      ]
    }
  ]
}, {
  "name": "Philippines",
  "people": [
    {
      "name": "Jaine Mariel",
      "animals": [
        {
          "name": "Common melba finch"
        },
        {
          "name": "Striated heron"
        },
        {
          "name": "Eastern cottontail rabbit"
        }
      ]
    },
    {
      "name": "Edgard Brimacombe",
      "animals": [
        {
          "name": "Scarlet macaw"
        }
      ]
    },
    {
      "name": "Fonzie Romushkin",
      "animals": [
        {
          "name": "Civet cat"
        }
      ]
    }
  ]
}, {
  "name": "United States",
  "people": [
    {
      "name": "Querida Cofax",
      "animals": [
        {
          "name": "Dove, emerald-spotted wood"
        }
      ]
    },
    {
      "name": "Brenna Capelle",
      "animals": [
        {
          "name": "Armadillo, nine-banded"
        },
        {
          "name": "Robin, white-throated"
        },
        {
          "name": "Mynah, common"
        }
      ]
    },
    {
      "name": "Sena Toffalo",
      "animals": [
        {
          "name": "Shrike, crimson-breasted"
        }
      ]
    },
    {
      "name": "Shannen Farryan",
      "animals": [

      ]
    },
    {
      "name": "Isidore Ballchin",
      "animals": [
        {
          "name": "Gnu, brindled"
        },
        {
          "name": "Southern white-crowned shrike"
        }
      ]
    }
  ]
}, {
  "name": null,
  "people": [
    {
      "name": "Hamid Schurig",
      "animals": [

      ]
    },
    {
      "name": "Raquel Yerill",
      "animals": [
        {
          "name": "Robin, white-throated"
        },
        {
          "name": "Crow, house"
        },
        {
          "name": "Violet-eared waxbill"
        },
        {
          "name": "Sheep, american bighorn"
        },
        {
          "name": "Black-throated butcher bird"
        }
      ]
    },
    {
      "name": "Sarajane Pollicott",
      "animals": [
        {
          "name": "Roller, lilac-breasted"
        },
        {
          "name": "Kite, black"
        },
        {
          "name": "Timber wolf"
        },
        {
          "name": "Richardson's ground squirrel"
        }
      ]
    }
  ]
}, {
  "name": "Somalia",
  "people": [
    {
      "name": "Lane Mival",
      "animals": [
        {
          "name": "Gazelle, grant's"
        },
        {
          "name": "Colobus, magistrate black"
        }
      ]
    },
    {
      "name": "Aloysius Manz",
      "animals": [
        {
          "name": "Bird, pied butcher"
        },
        {
          "name": "Dog, bush"
        }
      ]
    }
  ]
}, {
  "name": "China",
  "people": [
    {
      "name": "Gerrard Stiling",
      "animals": [

      ]
    },
    {
      "name": "Velma McKnish",
      "animals": [
        {
          "name": "Porcupine, indian"
        },
        {
          "name": "Kirk's dik dik"
        },
        {
          "name": "Woolly-necked stork"
        }
      ]
    }
  ]
}, {
  "name": "Serbia",
  "people": [

  ]
}, {
  "name": "Russia",
  "people": [
    {
      "name": "Byrle Curnock",
      "animals": [
        {
          "name": "Macaw, blue and gold"
        },
        {
          "name": "Wallaby, bennett's"
        },
        {
          "name": "Sloth, two-toed tree"
        }
      ]
    },
    {
      "name": "Elysia Draye",
      "animals": [
        {
          "name": "Zebra, common"
        },
        {
          "name": "Blue duck"
        },
        {
          "name": "Grey heron"
        }
      ]
    },
    {
      "name": "Feliks Bartosik",
      "animals": [
        {
          "name": "Weaver, white-browed sparrow"
        },
        {
          "name": "Gazelle, grant's"
        },
        {
          "name": "Squirrel, antelope ground"
        },
        {
          "name": "Wallaby, euro"
        }
      ]
    },
    {
      "name": "Bryna Ashling",
      "animals": [
        {
          "name": "Crimson-breasted shrike"
        },
        {
          "name": "Shark, blue"
        }
      ]
    }
  ]
}, {
  "name": "France",
  "people": [
    {
      "name": "Benedick MacVicar",
      "animals": [

      ]
    },
    {
      "name": "Nikos Feakins",
      "animals": [
        {
          "name": "Hornbill, red-billed"
        },
        {
          "name": "Mississippi alligator"
        }
      ]
    }
  ]
}, {
  "name": "Greece",
  "people": [

  ]
}, {
  "name": "Brazil",
  "people": [
    {
      "name": "Calli Bohl",
      "animals": [
        {
          "name": "Goose, knob-nosed"
        },
        {
          "name": "Kookaburra, laughing"
        },
        {
          "name": "Southern black-backed gull"
        },
        {
          "name": "Turtle, eastern box"
        }
      ]
    }
  ]
}, {
  "name": "Malaysia",
  "people": [
    {
      "name": "Keenan Halifax",
      "animals": [

      ]
    },
    {
      "name": "Rosaleen Wight",
      "animals": [
        {
          "name": "Goose, canada"
        },
        {
          "name": "Asiatic wild ass"
        },
        {
          "name": "Bird, bare-faced go away"
        },
        {
          "name": "White-browed owl"
        }
      ]
    }
  ]
}, {
  "name": "Japan",
  "people": [
    {
      "name": "Nehemiah Baudic",
      "animals": [
        {
          "name": "Dove, white-winged"
        }
      ]
    },
    {
      "name": "Byrle Counsell",
      "animals": [
        {
          "name": "Civet, small-toothed palm"
        },
        {
          "name": "Stork, white-necked"
        }
      ]
    },
    {
      "name": "Bil Dyhouse",
      "animals": [
        {
          "name": "Southern ground hornbill"
        },
        {
          "name": "Bandicoot, southern brown"
        },
        {
          "name": "White spoonbill"
        },
        {
          "name": "Buffalo, american"
        }
      ]
    },
    {
      "name": "Frederigo Proudlove",
      "animals": [
        {
          "name": "Admiral, indian red"
        },
        {
          "name": "Ibis, sacred"
        },
        {
          "name": "White-tailed jackrabbit"
        },
        {
          "name": "Bandicoot, short-nosed"
        }
      ]
    },
    {
      "name": "Germayne Rotge",
      "animals": [

      ]
    }
  ]
}, {
  "name": "Palestinian Territory",
  "people": [
    {
      "name": "Ralph Challenger",
      "animals": [
        {
          "name": "Puna ibis"
        },
        {
          "name": "Rat, desert kangaroo"
        }
      ]
    }
  ]
}, {
  "name": "Portugal",
  "people": [
    {
      "name": "Bibbye Yon",
      "animals": [
        {
          "name": "Coatimundi, white-nosed"
        }
      ]
    },
    {
      "name": "Beitris Maywood",
      "animals": [
        {
          "name": "Eastern cottontail rabbit"
        },
        {
          "name": "Nyala"
        },
        {
          "name": "Squirrel, eurasian red"
        },
        {
          "name": "Zorro, azara's"
        }
      ]
    },
    {
      "name": "Court Robez",
      "animals": [
        {
          "name": "Tamandua, southern"
        },
        {
          "name": "White-necked raven"
        },
        {
          "name": "Bottle-nose dolphin"
        },
        {
          "name": "Booby, blue-faced"
        }
      ]
    },
    {
      "name": "Bria Whartonby",
      "animals": [
        {
          "name": "Sloth, two-toed tree"
        },
        {
          "name": "Galapagos albatross"
        },
        {
          "name": "Legaan, Monitor (unidentified)"
        }
      ]
    }
  ]
}, {
  "name": "Indonesia",
  "people": [
    {
      "name": "Xymenes Beckenham",
      "animals": [
        {
          "name": "Pelican, brown"
        },
        {
          "name": "Sandgrouse, yellow-throated"
        },
        {
          "name": "Hawk, galapagos"
        }
      ]
    },
    {
      "name": "Vonnie Creech",
      "animals": [

      ]
    },
    {
      "name": "Humberto Boole",
      "animals": [
        {
          "name": "Canadian tiger swallowtail butterfly"
        },
        {
          "name": "Crab-eating fox"
        },
        {
          "name": "Bird, black-throated butcher"
        },
        {
          "name": "Southern brown bandicoot"
        },
        {
          "name": "Sheep, red"
        }
      ]
    },
    {
      "name": "Carey Meus",
      "animals": [
        {
          "name": "Phalarope, red-necked"
        },
        {
          "name": "American racer"
        },
        {
          "name": "Three-banded plover"
        }
      ]
    }
  ]
}, {
  "name": "Mexico",
  "people": [
    {
      "name": "Ninon Del Castello",
      "animals": [
        {
          "name": "African red-eyed bulbul"
        },
        {
          "name": "Australian sea lion"
        },
        {
          "name": "Tasmanian devil"
        },
        {
          "name": "Squirrel, arctic ground"
        }
      ]
    },
    {
      "name": "Perice Shevill",
      "animals": [
        {
          "name": "Racer, american"
        },
        {
          "name": "Fox, asian red"
        },
        {
          "name": "Coyote"
        }
      ]
    },
    {
      "name": "Winfield Bisset",
      "animals": [
        {
          "name": "Bandicoot, long-nosed"
        },
        {
          "name": "Tortoise, galapagos"
        }
      ]
    },
    {
      "name": "Bertie Gillson",
      "animals": [

      ]
    },
    {
      "name": "Christi Fendt",
      "animals": [
        {
          "name": "Canadian river otter"
        },
        {
          "name": "Denham's bustard"
        }
      ]
    }
  ]
}, {
  "name": "Greece",
  "people": [
    {
      "name": "Rafaelita McVeigh",
      "animals": [
        {
          "name": "Langur, gray"
        },
        {
          "name": "Kongoni"
        }
      ]
    }
  ]
}, {
  "name": "Philippines",
  "people": [
    {
      "name": "Helenka Penkethman",
      "animals": [
        {
          "name": "Grebe, little"
        }
      ]
    },
    {
      "name": "Barry Tesdale",
      "animals": [
        {
          "name": "Impala"
        },
        {
          "name": "Common langur"
        },
        {
          "name": "Herring gull"
        },
        {
          "name": "Fox, savanna"
        },
        {
          "name": "Tree porcupine"
        }
      ]
    }
  ]
}, {
  "name": "Indonesia",
  "people": [
    {
      "name": "Carlotta Romeuf",
      "animals": [

      ]
    },
    {
      "name": "Dani Butt Gow",
      "animals": [

      ]
    },
    {
      "name": "Drucie Rangeley",
      "animals": [
        {
          "name": "Wallaby, whip-tailed"
        },
        {
          "name": "Thrasher, curve-billed"
        },
        {
          "name": "Kinkajou"
        },
        {
          "name": "Black-capped chickadee"
        }
      ]
    }
  ]
}, {
  "name": "Peru",
  "people": [
    {
      "name": "Charles Kneebone",
      "animals": [
        {
          "name": "Dove, emerald-spotted wood"
        },
        {
          "name": "African red-eyed bulbul"
        }
      ]
    },
    {
      "name": "Saree Marchand",
      "animals": [
        {
          "name": "Vine snake (unidentified)"
        }
      ]
    },
    {
      "name": "Shayne Capron",
      "animals": [
        {
          "name": "Red-billed hornbill"
        },
        {
          "name": "Cormorant, little"
        },
        {
          "name": "Carmine bee-eater"
        },
        {
          "name": "Yellow-throated sandgrouse"
        },
        {
          "name": "Indian jackal"
        }
      ]
    },
    {
      "name": "Cynde Zappel",
      "animals": [
        {
          "name": "Comb duck"
        },
        {
          "name": "African polecat"
        },
        {
          "name": "Heron, little"
        }
      ]
    },
    {
      "name": "Lalo Boome",
      "animals": [
        {
          "name": "Thrasher, curve-billed"
        },
        {
          "name": "Rat, desert kangaroo"
        },
        {
          "name": "Deer, white-tailed"
        }
      ]
    }
  ]
}, {
  "name": "Cyprus",
  "people": [
    {
      "name": "Holmes Renouf",
      "animals": [
        {
          "name": "Small-clawed otter"
        },
        {
          "name": "Red-tailed wambenger"
        },
        {
          "name": "Barrows goldeneye"
        },
        {
          "name": "Buffalo, asian water"
        }
      ]
    }
  ]
}, {
  "name": "United States",
  "people": [

  ]
}, {
  "name": "China",
  "people": [
    {
      "name": "Nobie Powys",
      "animals": [
        {
          "name": "Hornbill, yellow-billed"
        },
        {
          "name": "Civet, small-toothed palm"
        },
        {
          "name": "Squirrel glider"
        }
      ]
    },
    {
      "name": "Ashby Eveque",
      "animals": [
        {
          "name": "Indian peacock"
        },
        {
          "name": "Quoll, eastern"
        },
        {
          "name": "Lion, steller sea"
        },
        {
          "name": "Bustard, kori"
        },
        {
          "name": "African snake (unidentified)"
        }
      ]
    },
    {
      "name": "Olivier Asif",
      "animals": [

      ]
    },
    {
      "name": "Conrado Tindley",
      "animals": [

      ]
    }
  ]
}, {
  "name": "China",
  "people": [

  ]
}, {
  "name": "Sweden",
  "people": [
    {
      "name": "Bradley Cheverton",
      "animals": [
        {
          "name": "Stork, greater adjutant"
        },
        {
          "name": "Wood pigeon"
        },
        {
          "name": "Malagasy ground boa"
        },
        {
          "name": "Ibis, sacred"
        }
      ]
    },
    {
      "name": "Sasha Probart",
      "animals": [
        {
          "name": "Bee-eater, white-fronted"
        },
        {
          "name": "Indian peacock"
        }
      ]
    },
    {
      "name": "Kendre Ackenson",
      "animals": [
        {
          "name": "Brush-tailed bettong"
        }
      ]
    },
    {
      "name": "Burton Georgelin",
      "animals": [
        {
          "name": "Golden-mantled ground squirrel"
        }
      ]
    }
  ]
}, {
  "name": "Thailand",
  "people": [
    {
      "name": "Johanna Oleszkiewicz",
      "animals": [
        {
          "name": "Dabchick"
        },
        {
          "name": "Tortoise, burmese black mountain"
        }
      ]
    },
    {
      "name": "Kelci Speere",
      "animals": [
        {
          "name": "Tsessebe"
        }
      ]
    },
    {
      "name": "Reynard Ackery",
      "animals": [

      ]
    }
  ]
}, {
  "name": "Russia",
  "people": [
    {
      "name": "Gustie Jerschke",
      "animals": [
        {
          "name": "Honey badger"
        },
        {
          "name": "White-eye, cape"
        },
        {
          "name": "Common turkey"
        },
        {
          "name": "White-winged black tern"
        },
        {
          "name": "Wombat, common"
        }
      ]
    },
    {
      "name": "Trixy Benardet",
      "animals": [
        {
          "name": "Lesser mouse lemur"
        },
        {
          "name": "Hawk, red-tailed"
        },
        {
          "name": "Squirrel, palm"
        },
        {
          "name": "Macaw, red and blue"
        },
        {
          "name": "Eagle, bateleur"
        }
      ]
    },
    {
      "name": "Cchaddie Hamer",
      "animals": [
        {
          "name": "Iguana, common green"
        },
        {
          "name": "American alligator"
        },
        {
          "name": "Hen, sage"
        },
        {
          "name": "Eagle, long-crested hawk"
        },
        {
          "name": "Great white pelican"
        }
      ]
    },
    {
      "name": "Loutitia Muge",
      "animals": [
        {
          "name": "Red-billed hornbill"
        },
        {
          "name": "Lion, mountain"
        }
      ]
    }
  ]
}, {
  "name": "Philippines",
  "people": [
    {
      "name": "Vail Dunphy",
      "animals": [
        {
          "name": "Boubou, southern"
        },
        {
          "name": "Eastern diamondback rattlesnake"
        }
      ]
    },
    {
      "name": "Catharine Bothram",
      "animals": [
        {
          "name": "House sparrow"
        },
        {
          "name": "Red-headed woodpecker"
        },
        {
          "name": "American marten"
        },
        {
          "name": "Lion, asian"
        },
        {
          "name": "Baboon, gelada"
        }
      ]
    },
    {
      "name": "Guglielmo Pierro",
      "animals": [
        {
          "name": "Bobcat"
        },
        {
          "name": "Lion, galapagos sea"
        },
        {
          "name": "Monkey, vervet"
        }
      ]
    },
    {
      "name": "Eward Griggs",
      "animals": [

      ]
    }
  ]
}, {
  "name": "China",
  "people": [

  ]
}, {
  "name": "Uruguay",
  "people": [
    {
      "name": "Janka Gaffon",
      "animals": [
        {
          "name": "Ground legaan"
        },
        {
          "name": "Coyote"
        },
        {
          "name": "Dragon, western bearded"
        },
        {
          "name": "Drongo, fork-tailed"
        },
        {
          "name": "Dik, kirk's dik"
        }
      ]
    },
    {
      "name": "Clemmie Duggon",
      "animals": [
        {
          "name": "Peccary, collared"
        },
        {
          "name": "White-faced whistling duck"
        },
        {
          "name": "European beaver"
        }
      ]
    },
    {
      "name": "Vern Skaife d'Ingerthorpe",
      "animals": [

      ]
    },
    {
      "name": "Cherida Withur",
      "animals": [

      ]
    }
  ]
}, {
  "name": "Finland",
  "people": [
    {
      "name": "Afton Matushenko",
      "animals": [
        {
          "name": "Blue fox"
        }
      ]
    },
    {
      "name": "Ina Jobke",
      "animals": [

      ]
    },
    {
      "name": "Jazmin Titcomb",
      "animals": [
        {
          "name": "Great kiskadee"
        },
        {
          "name": "Ring-necked pheasant"
        },
        {
          "name": "Giant otter"
        },
        {
          "name": "Sportive lemur"
        },
        {
          "name": "Kangaroo, brush-tailed rat"
        }
      ]
    },
    {
      "name": "Ralina Lodovichi",
      "animals": [
        {
          "name": "Chestnut weaver"
        },
        {
          "name": "Arctic hare"
        },
        {
          "name": "Quoll, eastern"
        }
      ]
    },
    {
      "name": "Bettye Puxley",
      "animals": [

      ]
    }
  ]
}, {
  "name": "China",
  "people": [
    {
      "name": "Arvy Hinrich",
      "animals": [
        {
          "name": "Great egret"
        },
        {
          "name": "Blue and yellow macaw"
        },
        {
          "name": "Gambel's quail"
        },
        {
          "name": "Savanna baboon"
        },
        {
          "name": "Eurasian red squirrel"
        }
      ]
    },
    {
      "name": "Terrence Hylden",
      "animals": [
        {
          "name": "Eastern boa constrictor"
        },
        {
          "name": "Stork, jabiru"
        },
        {
          "name": "Platypus"
        },
        {
          "name": "Falcon, prairie"
        }
      ]
    },
    {
      "name": "Ayn Packer",
      "animals": [
        {
          "name": "Meerkat, red"
        },
        {
          "name": "African polecat"
        },
        {
          "name": "Giraffe"
        },
        {
          "name": "Sloth, two-toed"
        }
      ]
    },
    {
      "name": "Neile Gibbs",
      "animals": [

      ]
    },
    {
      "name": "Ivan Whaymand",
      "animals": [
        {
          "name": "Squirrel, uinta ground"
        }
      ]
    }
  ]
}, {
  "name": "Serbia",
  "people": [
    {
      "name": "Denise Kryzhov",
      "animals": [
        {
          "name": "Deer, mule"
        },
        {
          "name": "Heron, giant"
        },
        {
          "name": "Baboon, yellow"
        },
        {
          "name": "Bat, asian false vampire"
        },
        {
          "name": "Common raccoon"
        }
      ]
    },
    {
      "name": "Wilbur Senior",
      "animals": [

      ]
    },
    {
      "name": "Tracey Thexton",
      "animals": [
        {
          "name": "Bat, madagascar fruit"
        },
        {
          "name": "European beaver"
        },
        {
          "name": "Genet, small-spotted"
        },
        {
          "name": "Shelduck, common"
        },
        {
          "name": "Oryx, fringe-eared"
        }
      ]
    },
    {
      "name": "Cristin Dadd",
      "animals": [
        {
          "name": "Weaver, red-billed buffalo"
        },
        {
          "name": "Asian elephant"
        },
        {
          "name": "Eagle, bateleur"
        },
        {
          "name": "Red-legged pademelon"
        }
      ]
    }
  ]
}, {
  "name": "Botswana",
  "people": [
    {
      "name": "Iosep Crowcombe",
      "animals": [

      ]
    },
    {
      "name": "Elsinore Pelfer",
      "animals": [
        {
          "name": "Blackbird, red-winged"
        },
        {
          "name": "Mongoose, yellow"
        },
        {
          "name": "Squirrel, richardson's ground"
        }
      ]
    },
    {
      "name": "Brandon Landal",
      "animals": [

      ]
    },
    {
      "name": "Maison Maingot",
      "animals": [
        {
          "name": "Common wombat"
        }
      ]
    },
    {
      "name": "Frederigo Blacktin",
      "animals": [

      ]
    }
  ]
}, {
  "name": "Indonesia",
  "people": [
    {
      "name": "Tobi Yendle",
      "animals": [
        {
          "name": "Tinamou, elegant crested"
        }
      ]
    },
    {
      "name": "Benita Macklam",
      "animals": [
        {
          "name": "Euro wallaby"
        },
        {
          "name": "Blue-breasted cordon bleu"
        }
      ]
    },
    {
      "name": "Jeramie Peascod",
      "animals": [
        {
          "name": "Hawk, galapagos"
        }
      ]
    },
    {
      "name": "Grata Winwood",
      "animals": [
        {
          "name": "Porcupine, prehensile-tailed"
        },
        {
          "name": "Sage grouse"
        },
        {
          "name": "Western lowland gorilla"
        },
        {
          "name": "Bleeding heart monkey"
        }
      ]
    },
    {
      "name": "Nata Sneezem",
      "animals": [
        {
          "name": "North American red fox"
        },
        {
          "name": "Wattled crane"
        }
      ]
    }
  ]
}, {
  "name": "Russia",
  "people": [
    {
      "name": "Mel Febre",
      "animals": [

      ]
    },
    {
      "name": "Saul Aven",
      "animals": [

      ]
    }
  ]
}, {
  "name": "China",
  "people": [
    {
      "name": "Winnah Delatour",
      "animals": [
        {
          "name": "Mocking cliffchat"
        },
        {
          "name": "Tortoise, burmese black mountain"
        },
        {
          "name": "Horned puffin"
        },
        {
          "name": "African porcupine"
        },
        {
          "name": "Richardson's ground squirrel"
        }
      ]
    },
    {
      "name": "Lowrance Tooze",
      "animals": [
        {
          "name": "Eagle, long-crested hawk"
        },
        {
          "name": "Red-knobbed coot"
        },
        {
          "name": "Southern white-crowned shrike"
        },
        {
          "name": "Squirrel, red"
        }
      ]
    },
    {
      "name": "Chancey Syseland",
      "animals": [
        {
          "name": "Tailless tenrec"
        },
        {
          "name": "Flicker, campo"
        }
      ]
    }
  ]
}]